<svg width="600" height="90" xmlns="http://www.w3.org/2000/svg" xmlns:svg="http://www.w3.org/2000/svg" xmlns:xlink="http://www.w3.org/1999/xlink">
 <!-- Created with SVG-edit - http://svg-edit.googlecode.com/ -->
 <defs>
  <symbol id="svg_29" viewBox="0 0 48.962169 6.6135991" height="24.99628" width="185.05386" xmlns="http://www.w3.org/2000/svg" xmlns:svg="http://www.w3.org/2000/svg">
   <defs>
    <clipPath clipPathUnits="userSpaceOnUse" id="svg_27">
     <path d="m0,0l864,0l0,612l-864,0l0,-612z" id="svg_28"/>
    </clipPath>
    <clipPath clipPathUnits="userSpaceOnUse" id="svg_22">
     <path d="m0,0l864,0l0,612l-864,0l0,-612z" id="svg_26"/>
    </clipPath>
   </defs>
   <metadata id="svg_25">image/svg+xml</metadata>
   <g transform="translate(36.377549,45.105417)" id="svg_2">
    <g transform="translate(0.1322914,-0.13229155)" id="svg_3">
     <g id="svg_20" transform="matrix(0.35277777,0,0,-0.35277777,-278.40102,-28.966657)">
      <g id="svg_21" clip-path="url(#svg_22)">
       <g id="svg_23" transform="translate(765.577,36.5821)">
        <path fill="#6b737b" fill-rule="nonzero" d="m0,0c-2.452,3.199 -0.467,8.191 4.019,8.245l9.122,0l-0.822,-2.234l-4.83,0l-2.545,0c-1.226,-0.015 -1.908,-1.52 -1.229,-2.438c1.143,-1.757 3.074,-2.986 4.291,-4.786c2.639,-3.551 -0.022,-8.18 -3.953,-8.191l-10.033,0l0.821,2.233l5.456,0l2.467,0c1.215,0.015 1.893,1.515 1.258,2.414c-1.003,1.662 -2.778,3.239 -4.022,4.757" id="svg_24"/>
       </g>
      </g>
     </g>
     <g id="svg_18" transform="matrix(0.35277777,0,0,-0.35277777,-27.348694,-38.554447)">
      <path fill="#eb1a2c" fill-rule="nonzero" d="m0,0l-5.302,0l6.506,17.649l0.154,0l4.995,0l0.153,0l-6.506,-17.649z" id="svg_19"/>
     </g>
     <g id="svg_16" transform="matrix(0.35277777,0,0,-0.35277777,-11.573249,-38.554447)">
      <path fill="#6b737b" fill-rule="nonzero" d="m0,0l-4.995,0l6.506,17.649l4.995,0l-6.506,-17.649z" id="svg_17"/>
     </g>
     <g id="svg_14" transform="matrix(0.35277777,0,0,-0.35277777,-3.0000772,-38.554447)">
      <path fill="#6b737b" fill-rule="nonzero" d="m0,0l-4.994,0l6.505,17.649l4.995,0l-6.506,-17.649z" id="svg_15"/>
     </g>
     <g id="svg_12" transform="matrix(0.35277777,0,0,-0.35277777,-0.33763057,-42.893653)">
      <path fill="#6b737b" fill-rule="nonzero" d="m0,0c1.74,3.675 5.406,5.627 8.798,5.515l1.312,0l0,0l1.785,0c2.612,-0.122 4.197,-2.279 4.331,-4.064c0.03,-0.422 0.026,-0.835 -0.03,-1.158c-0.042,-0.199 -0.088,-0.399 -0.137,-0.601c-0.547,-2.266 -1.371,-4.576 -2.45,-6.651c-1.74,-3.674 -5.407,-5.627 -8.799,-5.514l-1.312,-0.001l-0.019,0l-1.766,0c-2.611,0.123 -4.197,2.279 -4.331,4.064c-0.03,0.423 -0.025,0.836 0.031,1.159c0.042,0.198 0.087,0.399 0.137,0.6c0.547,2.266 1.371,4.577 2.45,6.651m9.455,3.686l0,0c-1.84,-0.053 -3.388,-1.109 -4.055,-2.834l-3.299,-8.987c-0.089,-0.212 -0.129,-0.447 -0.122,-0.684l0,-0.004c0,-0.96 0.747,-1.751 1.689,-1.823l0.488,0c1.839,0.053 3.386,1.111 4.053,2.835l3.299,8.987c0.088,0.213 0.128,0.447 0.121,0.684l0,0.004c0,0.96 -0.746,1.752 -1.688,1.824l-0.486,-0.002z" id="svg_13"/>
     </g>
     <g id="svg_10" transform="matrix(0.35277777,0,0,-0.35277777,-33.095657,-42.383501)">
      <path fill="#eb1a2c" fill-rule="nonzero" d="m0,0l6.315,0l2.505,6.795l5.302,0l-6.109,-16.573l0,0.001c-0.003,-0.006 -0.006,-0.011 -0.009,-0.016c-0.244,-0.618 -0.845,-1.057 -1.547,-1.061l-4.143,0l3.112,8.441l-6.315,0l-3.112,-8.441l-5.302,0l6.506,17.649l5.302,0l-2.505,-6.795z" id="svg_11"/>
     </g>
     <g id="svg_8" transform="matrix(0.35277777,0,0,-0.35277777,-22.773203,-42.439593)">
      <path fill="#eb1a2c" fill-rule="nonzero" d="m0,0l8.642,6.636l3.962,0l-8.835,-6.784l5.602,-10.861l-4.502,0c0.015,0.004 0.028,0.007 0.04,0.008c-0.7,-0.047 -1.332,0.348 -1.62,0.946c-0.003,0.005 -0.006,0.01 -0.01,0.016l-0.002,-0.008l-3.517,6.82l-1.325,-1.017l-2.495,-6.769l-5.302,0l6.506,17.649l5.302,0l-2.446,-6.636z" id="svg_9"/>
     </g>
     <g id="svg_6" transform="matrix(0.35277777,0,0,-0.35277777,-15.654818,-40.500726)">
      <path fill="#6b737b" fill-rule="nonzero" d="m0,0l8.123,12.132l2.932,0l-11.339,-16.903l-0.001,0.001c-0.294,-0.44 -0.789,-0.73 -1.342,-0.747l-0.108,0c-0.018,0 -0.037,0.001 -0.055,0.002c0.004,0 0.01,-0.001 0.015,-0.002l-0.178,0l-1.741,0l-0.862,0l-1.388,17.649l4.991,0l0.953,-12.132z" id="svg_7"/>
     </g>
     <g id="svg_4" transform="matrix(0.35277777,0,0,-0.35277777,7.2442693,-42.76884)">
      <path fill="#6b737b" fill-rule="nonzero" d="m0,0l-0.022,0.218l-4.504,-12.164l-2.573,0l6.535,17.649l2.573,0l0.686,0l4.703,-11.927l4.416,11.927l2.574,0l-6.536,-17.649l-2.354,0c-0.652,0.035 -1.209,0.447 -1.452,1.022l-4.046,10.924z" id="svg_5"/>
     </g>
    </g>
   </g>
  </symbol>
 </defs>
 <g>
  <title>Layer 1</title>
  <use x="0" y="1.83608" transform="matrix(3.267829179763794,0,0,3.267829179763794,0,0) " xlink:href="#svg_29" id="svg_30"/>
  <g stroke="null" id="svg_31"/>
 </g>
</svg>